%!PS-Adobe-3.0 EPSF-3.0 
%%BoundingBox: 0 0 567 454
%%Pages: 0
%%Creator: LibreOffice 4.4
%%Title: none
%%CreationDate: none
%%LanguageLevel: 2
%%EndComments
%%BeginProlog
%%BeginResource: procset SDRes-Prolog 1.0 0
/b4_inc_state save def
/dict_count countdictstack def
/op_count count 1 sub def
userdict begin
0 setgray 0 setlinecap 1 setlinewidth 0 setlinejoin 10 setmiterlimit[] 0 setdash newpath
/languagelevel where {pop languagelevel 1 ne {false setstrokeadjust false setoverprint} if} if
/bdef {bind def} bind def
/c {setgray} bdef
/l {neg lineto} bdef
/rl {neg rlineto} bdef
/lc {setlinecap} bdef
/lj {setlinejoin} bdef
/lw {setlinewidth} bdef
/ml {setmiterlimit} bdef
/ld {setdash} bdef
/m {neg moveto} bdef
/ct {6 2 roll neg 6 2 roll neg 6 2 roll neg curveto} bdef
/r {rotate} bdef
/t {neg translate} bdef
/s {scale} bdef
/sw {show} bdef
/gs {gsave} bdef
/gr {grestore} bdef
/f {findfont dup length dict begin
{1 index /FID ne {def} {pop pop} ifelse} forall /Encoding ISOLatin1Encoding def
currentdict end /NFont exch definefont pop /NFont findfont} bdef
/p {closepath} bdef
/sf {scalefont setfont} bdef
/ef {eofill}bdef
/pc {closepath stroke}bdef
/ps {stroke}bdef
/pum {matrix currentmatrix}bdef
/pom {setmatrix}bdef
/bs {/aString exch def /nXOfs exch def /nWidth exch def currentpoint nXOfs 0 rmoveto pum nWidth aString stringwidth pop div 1 scale aString show pom moveto} bdef
%%EndResource
%%EndProlog
%%BeginSetup
%%EndSetup
%%Page: 1 1
%%BeginPageSetup
%%EndPageSetup
pum
0.02835 0.02837 s 
0 -16000 t
/tm matrix currentmatrix def
gs
tm setmatrix
-1111 -1143 t 
1 1 s 
1111 1143 m 21110 1143 l 21110 17142 l 1111 17142 l 1111 1143 l eoclip newpath
gs
1111 1143 m 21110 1143 l 21110 17142 l 1111 17142 l 1111 1143 l eoclip newpath
0.996 c 1111 1143 m  21110 1143 l  21110 17142 l  1111 17142 l  1111 1143 l 
p ef
0.796 c 3611 12229 m  4399 12229 5000 12847 5000 13657 ct 5000 14467 4399 15086 3611 15086 ct 
2823 15086 2222 14467 2222 13657 ct 2222 12847 2823 12229 3611 12229 ct p ef
56.34361 lw 1 lj 0.000 c 3611 12228 m  4398 12228 5000 12846 5000 13657 ct 
5000 14467 4398 15085 3611 15085 ct 2823 15085 2222 14467 2222 13657 ct 2222 12846 2823 12228 3611 12228 ct 
pc
0.636 c 3160 12976 m  3232 12976 3288 13082 3288 13222 ct 3288 13361 3232 13467 3160 13467 ct 
3088 13467 3032 13361 3032 13222 ct 3032 13082 3088 12976 3160 12976 ct p ef
0.000 c 3160 12976 m  3232 12976 3287 13082 3287 13221 ct 3287 13361 3232 13467 3160 13467 ct 
3087 13467 3032 13361 3032 13221 ct 3032 13082 3087 12976 3160 12976 ct pc
0.636 c 4060 12976 m  4132 12976 4188 13082 4188 13222 ct 4188 13361 4132 13467 4060 13467 ct 
3988 13467 3932 13361 3932 13222 ct 3932 13082 3988 12976 4060 12976 ct p ef
0.000 c 4060 12976 m  4132 12976 4187 13082 4187 13221 ct 4187 13361 4132 13467 4060 13467 ct 
3987 13467 3932 13361 3932 13221 ct 3932 13082 3987 12976 4060 12976 ct pc
2847 14148 m  3338 14678 3883 14678 4374 14148 ct ps
0.796 c 16243 13061 m  16150 12665 16583 12291 17017 12291 ct 17153 12288 17294 12327 17410 12385 ct 
17521 12206 17727 12096 17959 12096 ct 18112 12102 18276 12155 18391 12251 ct 
18474 12093 18651 12000 18841 12000 ct 19000 12000 19147 12067 19239 12171 ct 
19346 12065 19506 12000 19672 12000 ct 19943 12000 20172 12167 20221 12401 ct 
20482 12466 20672 12678 20672 12921 ct 20672 12995 20658 13066 20619 13135 ct 
20730 13254 20798 13400 20798 13550 ct 20798 13889 20499 14175 20114 14224 ct 
20114 14549 19818 14803 19448 14803 ct 19320 14803 19200 14773 19093 14713 ct 
18996 14999 18688 15201 18343 15201 ct 18086 15201 17843 15080 17697 14890 ct 
17560 14963 17632 15007 17241 15007 ct 16919 15007 16622 14857 16468 14614 ct 
16097 14608 15908 14415 15908 14173 ct 15908 14059 15956 13958 16043 13873 ct 
15884 13801 15797 13661 15797 13499 ct 15797 13272 15991 13086 16243 13061 ct 
16243 13061 l  p ef
0.000 c 16243 13060 m  16150 12665 16583 12291 17016 12291 ct 17153 12288 17294 12326 17410 12385 ct 
17521 12205 17726 12096 17958 12096 ct 18112 12101 18275 12155 18391 12251 ct 
18474 12092 18651 12000 18841 12000 ct 19000 12000 19146 12067 19238 12171 ct 
19345 12065 19505 12000 19672 12000 ct 19943 12000 20172 12166 20221 12401 ct 
20482 12466 20672 12677 20672 12921 ct 20672 12995 20657 13066 20618 13134 ct 
20730 13253 20797 13400 20797 13549 ct 20797 13889 20498 14174 20114 14224 ct 
20114 14548 19817 14803 19447 14803 ct 19320 14803 19200 14772 19093 14713 ct 
18995 14998 18687 15201 18343 15201 ct 18085 15201 17843 15080 17696 14890 ct 
17560 14963 17632 15006 17241 15006 ct 16918 15006 16622 14857 16467 14613 ct 
16096 14608 15907 14414 15907 14172 ct 15907 14059 15955 13957 16043 13873 ct 
15884 13801 15796 13660 15796 13499 ct 15796 13272 15991 13085 16243 13060 ct 
16243 13060 l  pc
16243 13060 m  16247 13097 16268 13139 16280 13173 ct ps
17410 12385 m  17463 12412 17527 12451 17572 12490 ct ps
18391 12251 m  18373 12282 18361 12320 18350 12355 ct ps
19238 12171 m  19204 12206 19185 12254 19162 12297 ct ps
20221 12401 m  20225 12427 20248 12486 20238 12500 ct ps
20618 13134 m  20580 13210 20526 13276 20452 13331 ct ps
20116 14224 m  20135 14104 20028 13808 19732 13696 ct ps
19093 14713 m  19111 14664 19118 14619 19123 14572 ct ps
17698 14890 m  17662 14852 17638 14808 17615 14762 ct ps
16467 14613 m  16511 14608 16555 14598 16596 14585 ct ps
16043 13873 m  16120 13910 16207 13945 16335 13931 ct ps
0.796 c 8444 1371 m  8064 1371 7686 1761 7686 2152 ct 7686 5277 l  7686 5667 8064 6058 8444 6058 ct 
14038 6058 l  14418 6058 14798 5667 14798 5277 ct 14798 2152 l  14798 1761 14418 1371 14038 1371 ct 
8444 1371 l  p ef
0.000 c 8444 1371 m  8064 1371 7685 1761 7685 2152 ct 7685 5276 l  7685 5667 8064 6058 8444 6058 ct 
14037 6058 l  14417 6058 14797 5667 14797 5276 ct 14797 2152 l  14797 1761 14417 1371 14037 1371 ct 
8444 1371 l  pc
pum
9990 3967 t
127 -445 m  127 -259 l  406 -259 l  406 -203 l  127 -203 l  127 -1 l  60 -1 l 
60 -500 l  414 -500 l  414 -445 l  127 -445 l  p ef
481 -465 m  481 -526 l  544 -526 l  544 -465 l  481 -465 l  p
481 1 m  481 -383 l  544 -383 l  544 1 l  481 1 l  p ef
879 -61 m  867 -37 852 -19 832 -9 ct 813 2 788 7 760 7 ct 711 7 676 -9 653 -42 ct 
630 -74 618 -124 618 -190 ct 618 -323 666 -390 760 -390 ct 789 -390 813 -385 832 -374 ct 
852 -364 867 -347 879 -324 ct 880 -324 l  879 -367 l  879 -526 l  943 -526 l 
943 -79 l  943 -39 944 -13 945 0 ct 884 0 l  883 -4 883 -12 882 -26 ct 881 -40 880 -52 880 -61 ct 
879 -61 l  p
685 -192 m  685 -138 693 -100 707 -77 ct 721 -54 744 -42 776 -42 ct 812 -42 838 -55 855 -80 ct 
871 -105 879 -143 879 -196 ct 879 -247 871 -284 855 -308 ct 838 -331 812 -343 777 -343 ct 
744 -343 721 -331 707 -307 ct 693 -284 685 -245 685 -192 ct p ef
1090 -384 m  1090 -141 l  1090 -115 1093 -96 1098 -82 ct 1103 -68 1111 -58 1122 -52 ct 
1132 -45 1148 -42 1169 -42 ct 1200 -42 1224 -53 1242 -74 ct 1260 -95 1269 -124 1269 -162 ct 
1269 -384 l  1332 -384 l  1332 -82 l  1332 -37 1333 -10 1335 0 ct 1274 0 l 
1274 -1 1274 -4 1274 -10 ct 1273 -15 1273 -21 1273 -28 ct 1272 -34 1272 -47 1271 -66 ct 
1270 -66 l  1256 -39 1239 -21 1220 -10 ct 1200 1 1176 7 1148 7 ct 1106 7 1075 -3 1055 -24 ct 
1036 -45 1026 -80 1026 -128 ct 1026 -384 l  1090 -384 l  p ef
1466 -194 m  1466 -143 1475 -105 1491 -80 ct 1507 -56 1531 -43 1563 -43 ct 1586 -43 1605 -49 1620 -61 ct 
1635 -73 1645 -92 1648 -116 ct 1713 -116 l  1708 -79 1692 -49 1666 -27 ct 1639 -4 1606 7 1565 7 ct 
1511 7 1470 -10 1442 -44 ct 1414 -78 1400 -127 1400 -192 ct 1400 -257 1414 -306 1442 -340 ct 
1471 -374 1511 -391 1564 -391 ct 1604 -391 1636 -381 1662 -361 ct 1688 -340 1704 -312 1711 -276 ct 
1645 -271 l  1642 -293 1633 -310 1620 -322 ct 1607 -335 1587 -341 1563 -341 ct 
1529 -341 1504 -330 1489 -307 ct 1474 -285 1466 -247 1466 -194 ct p ef
1770 -465 m  1770 -526 l  1833 -526 l  1833 -465 l  1770 -465 l  p
1770 1 m  1770 -383 l  1833 -383 l  1833 1 l  1770 1 l  p ef
2024 7 m  1985 7 1956 -3 1937 -24 ct 1918 -44 1908 -72 1908 -108 ct 1908 -148 1921 -179 1947 -200 ct 
1973 -221 2015 -232 2073 -232 ct 2160 -232 l  2160 -253 l  2160 -285 2153 -308 2140 -322 ct 
2126 -336 2106 -342 2077 -342 ct 2049 -342 2028 -338 2015 -328 ct 2002 -318 1994 -303 1992 -281 ct 
1925 -287 l  1936 -356 1987 -391 2079 -391 ct 2127 -391 2163 -380 2188 -358 ct 
2212 -336 2224 -304 2224 -262 ct 2224 -97 l  2224 -78 2227 -64 2231 -54 ct 2236 -45 2246 -40 2260 -40 ct 
2266 -40 2273 -41 2281 -42 ct 2281 -3 l  2265 1 2248 3 2232 3 ct 2208 3 2191 -3 2180 -15 ct 
2169 -28 2163 -47 2162 -73 ct 2160 -73 l  2143 -44 2124 -23 2103 -11 ct 2081 1 2055 7 2024 7 ct 
p
2038 -41 m  2062 -41 2082 -46 2101 -57 ct 2119 -67 2133 -82 2144 -100 ct 2154 -118 2160 -137 2160 -157 ct 
2160 -188 l  2090 -188 l  2060 -188 2037 -185 2021 -179 ct 2006 -174 1994 -165 1986 -153 ct 
1978 -141 1973 -126 1973 -106 ct 1973 -86 1979 -69 1990 -58 ct 2001 -47 2018 -41 2038 -41 ct 
p ef
2317 0 m  2317 -294 l  2317 -321 2317 -351 2315 -384 ct 2375 -384 l  2377 -340 2378 -314 2378 -305 ct 
2380 -305 l  2390 -338 2402 -361 2415 -373 ct 2428 -385 2447 -391 2471 -391 ct 
2479 -391 2488 -390 2497 -387 ct 2497 -329 l  2488 -331 2477 -332 2463 -332 ct 
2436 -332 2416 -321 2402 -298 ct 2388 -275 2381 -243 2381 -200 ct 2381 0 l  2317 0 l 
p ef
pom
8018 13028 m  12435 13028 l  13908 14000 l  12435 14972 l  8018 14972 l 
9491 14000 l  8018 13028 l  pc
14451 6374 m  17607 9552 l  18000 11306 l  16285 10941 l  13128 7764 l 
14842 8128 l  14451 6374 l  pc
8907 8307 m  6040 11762 l  4365 12283 l  4602 10499 l  7470 7044 l  7233 8827 l 
8907 8307 l  pc
2980 9073 m  5840 5611 l  7513 5085 l  7280 6869 l  4421 10332 l  4653 8548 l 
2980 9073 l  pc
pum
15296 8231 t
-44.3 r 446 -350 m  446 -302 431 -265 400 -237 ct 369 -209 327 -195 274 -195 ct 
127 -195 l  127 0 l  60 0 l  60 -500 l  270 -500 l  326 -500 369 -487 400 -461 ct 
431 -434 446 -397 446 -350 ct p
378 -349 m  378 -413 339 -446 262 -446 ct 127 -446 l  127 -249 l  264 -249 l 
340 -249 378 -282 378 -349 ct p ef
520 0 m  520 -294 l  520 -321 520 -351 518 -384 ct 578 -384 l  580 -340 581 -314 581 -305 ct 
583 -305 l  593 -338 605 -361 618 -373 ct 631 -385 650 -391 674 -391 ct 682 -391 691 -390 700 -387 ct 
700 -329 l  691 -331 680 -332 666 -332 ct 639 -332 619 -321 605 -298 ct 591 -275 584 -243 584 -200 ct 
584 0 l  520 0 l  p ef
1079 -192 m  1079 -125 1065 -75 1035 -42 ct 1005 -9 963 7 906 7 ct 850 7 808 -10 779 -44 ct 
751 -78 736 -128 736 -192 ct 736 -325 794 -391 908 -391 ct 967 -391 1010 -375 1038 -343 ct 
1065 -310 1079 -260 1079 -192 ct p
1012 -192 m  1012 -245 1004 -284 989 -308 ct 973 -332 947 -344 909 -344 ct 872 -344 845 -332 828 -307 ct 
812 -283 803 -244 803 -192 ct 803 -142 812 -104 828 -78 ct 845 -53 870 -40 906 -40 ct 
944 -40 971 -52 988 -77 ct 1004 -102 1012 -140 1012 -192 ct p ef
1433 -106 m  1433 -70 1419 -42 1392 -22 ct 1365 -3 1326 7 1277 7 ct 1229 7 1193 -1 1167 -17 ct 
1141 -32 1124 -57 1116 -90 ct 1173 -101 l  1178 -81 1189 -66 1206 -56 ct 1223 -46 1247 -42 1277 -42 ct 
1310 -42 1333 -47 1348 -57 ct 1363 -66 1371 -81 1371 -101 ct 1371 -116 1366 -129 1355 -138 ct 
1345 -148 1328 -155 1305 -162 ct 1259 -174 l  1222 -183 1196 -192 1181 -201 ct 
1165 -211 1153 -222 1145 -235 ct 1136 -248 1131 -264 1131 -283 ct 1131 -318 1144 -344 1169 -363 ct 
1194 -381 1230 -390 1278 -390 ct 1320 -390 1354 -383 1379 -368 ct 1404 -353 1419 -329 1426 -296 ct 
1369 -289 l  1365 -306 1356 -319 1340 -328 ct 1325 -337 1304 -342 1278 -342 ct 
1249 -342 1228 -337 1214 -329 ct 1200 -320 1193 -307 1193 -289 ct 1193 -278 1196 -269 1202 -262 ct 
1208 -255 1216 -249 1227 -244 ct 1238 -239 1262 -232 1297 -223 ct 1331 -215 1355 -207 1370 -200 ct 
1385 -192 1397 -184 1406 -176 ct 1414 -167 1421 -157 1426 -145 ct 1430 -134 1433 -121 1433 -106 ct 
p ef
1645 -3 m  1624 3 1603 6 1581 6 ct 1530 6 1504 -23 1504 -81 ct 1504 -337 l  1460 -337 l 
1460 -383 l  1507 -383 l  1526 -470 l  1568 -470 l  1568 -383 l  1639 -383 l 
1639 -337 l  1568 -337 l  1568 -95 l  1568 -76 1571 -63 1577 -56 ct 1583 -48 1594 -45 1609 -45 ct 
1617 -45 1629 -46 1645 -50 ct 1645 -3 l  p ef
1794 7 m  1755 7 1726 -3 1707 -24 ct 1688 -44 1678 -72 1678 -108 ct 1678 -148 1691 -179 1717 -200 ct 
1743 -221 1785 -232 1843 -232 ct 1930 -232 l  1930 -253 l  1930 -285 1923 -308 1910 -322 ct 
1896 -336 1876 -342 1847 -342 ct 1819 -342 1798 -338 1785 -328 ct 1772 -318 1764 -303 1762 -281 ct 
1695 -287 l  1706 -356 1757 -391 1849 -391 ct 1897 -391 1933 -380 1958 -358 ct 
1982 -336 1994 -304 1994 -262 ct 1994 -97 l  1994 -78 1997 -64 2001 -54 ct 2006 -45 2016 -40 2030 -40 ct 
2036 -40 2043 -41 2051 -42 ct 2051 -3 l  2035 1 2018 3 2002 3 ct 1978 3 1961 -3 1950 -15 ct 
1939 -28 1933 -47 1932 -73 ct 1930 -73 l  1913 -44 1894 -23 1873 -11 ct 1851 1 1825 7 1794 7 ct 
p
1808 -41 m  1832 -41 1852 -46 1871 -57 ct 1889 -67 1903 -82 1914 -100 ct 1924 -118 1930 -137 1930 -157 ct 
1930 -188 l  1860 -188 l  1830 -188 1807 -185 1791 -179 ct 1776 -174 1764 -165 1756 -153 ct 
1748 -141 1743 -126 1743 -106 ct 1743 -86 1749 -69 1760 -58 ct 1771 -47 1788 -41 1808 -41 ct 
p ef
pom
pum
14743 8811 t
-44.3 r 49 1 m  49 -526 l  113 -526 l  113 1 l  49 1 l  p ef
205 -465 m  205 -526 l  268 -526 l  268 -465 l  205 -465 l  p
205 1 m  205 -383 l  268 -383 l  268 1 l  205 1 l  p ef
407 -194 m  407 -143 416 -105 432 -80 ct 448 -56 472 -43 504 -43 ct 527 -43 546 -49 561 -61 ct 
576 -73 586 -92 589 -116 ct 654 -116 l  649 -79 633 -49 607 -27 ct 580 -4 547 7 506 7 ct 
452 7 411 -10 383 -44 ct 355 -78 341 -127 341 -192 ct 341 -257 355 -306 383 -340 ct 
412 -374 452 -391 505 -391 ct 545 -391 577 -381 603 -361 ct 629 -340 645 -312 652 -276 ct 
586 -271 l  583 -293 574 -310 561 -322 ct 548 -335 528 -341 504 -341 ct 470 -341 445 -330 430 -307 ct 
415 -285 407 -247 407 -194 ct p ef
761 -179 m  761 -135 770 -101 788 -77 ct 806 -53 833 -41 868 -41 ct 896 -41 918 -46 934 -58 ct 
951 -69 962 -83 968 -100 ct 1024 -84 l  1001 -23 949 7 868 7 ct 811 7 768 -10 738 -44 ct 
709 -78 694 -128 694 -194 ct 694 -258 709 -306 738 -340 ct 768 -374 810 -391 865 -391 ct 
978 -391 1035 -323 1035 -188 ct 1035 -179 l  761 -179 l  p
969 -228 m  965 -268 955 -298 938 -316 ct 921 -335 896 -344 864 -344 ct 833 -344 809 -334 791 -313 ct 
773 -292 763 -264 762 -228 ct 969 -228 l  p ef
1345 0 m  1345 -243 l  1345 -269 1343 -288 1338 -302 ct 1333 -316 1325 -326 1314 -332 ct 
1303 -339 1287 -342 1266 -342 ct 1236 -342 1211 -331 1194 -310 ct 1176 -289 1167 -260 1167 -222 ct 
1167 0 l  1103 0 l  1103 -302 l  1103 -347 1103 -374 1101 -384 ct 1161 -384 l 
1162 -383 1162 -380 1162 -374 ct 1162 -369 1163 -363 1163 -356 ct 1163 -350 1164 -337 1164 -318 ct 
1165 -318 l  1180 -345 1197 -364 1216 -375 ct 1236 -386 1259 -391 1288 -391 ct 
1330 -391 1361 -381 1380 -360 ct 1400 -339 1410 -304 1410 -256 ct 1410 0 l  1345 0 l 
p ef
1541 -194 m  1541 -143 1550 -105 1566 -80 ct 1582 -56 1606 -43 1638 -43 ct 1661 -43 1680 -49 1695 -61 ct 
1710 -73 1720 -92 1723 -116 ct 1788 -116 l  1783 -79 1767 -49 1741 -27 ct 1714 -4 1681 7 1640 7 ct 
1586 7 1545 -10 1517 -44 ct 1489 -78 1475 -127 1475 -192 ct 1475 -257 1489 -306 1517 -340 ct 
1546 -374 1586 -391 1639 -391 ct 1679 -391 1711 -381 1737 -361 ct 1763 -340 1779 -312 1786 -276 ct 
1720 -271 l  1717 -293 1708 -310 1695 -322 ct 1682 -335 1662 -341 1638 -341 ct 
1604 -341 1579 -330 1564 -307 ct 1549 -285 1541 -247 1541 -194 ct p ef
1944 7 m  1905 7 1876 -3 1857 -24 ct 1838 -44 1828 -72 1828 -108 ct 1828 -148 1841 -179 1867 -200 ct 
1893 -221 1935 -232 1993 -232 ct 2080 -232 l  2080 -253 l  2080 -285 2073 -308 2060 -322 ct 
2046 -336 2026 -342 1997 -342 ct 1969 -342 1948 -338 1935 -328 ct 1922 -318 1914 -303 1912 -281 ct 
1845 -287 l  1856 -356 1907 -391 1999 -391 ct 2047 -391 2083 -380 2108 -358 ct 
2132 -336 2144 -304 2144 -262 ct 2144 -97 l  2144 -78 2147 -64 2151 -54 ct 2156 -45 2166 -40 2180 -40 ct 
2186 -40 2193 -41 2201 -42 ct 2201 -3 l  2185 1 2168 3 2152 3 ct 2128 3 2111 -3 2100 -15 ct 
2089 -28 2083 -47 2082 -73 ct 2080 -73 l  2063 -44 2044 -23 2023 -11 ct 2001 1 1975 7 1944 7 ct 
p
1958 -41 m  1982 -41 2002 -46 2021 -57 ct 2039 -67 2053 -82 2064 -100 ct 2074 -118 2080 -137 2080 -157 ct 
2080 -188 l  2010 -188 l  1980 -188 1957 -185 1941 -179 ct 1926 -174 1914 -165 1906 -153 ct 
1898 -141 1893 -126 1893 -106 ct 1893 -86 1899 -69 1910 -58 ct 1921 -47 1938 -41 1958 -41 ct 
p ef
pom
pum
4944 8464 t
49.6 r 446 -350 m  446 -302 431 -265 400 -237 ct 369 -209 327 -195 274 -195 ct 
127 -195 l  127 0 l  60 0 l  60 -500 l  270 -500 l  326 -500 369 -487 400 -461 ct 
431 -434 446 -397 446 -350 ct p
378 -349 m  378 -413 339 -446 262 -446 ct 127 -446 l  127 -249 l  264 -249 l 
340 -249 378 -282 378 -349 ct p ef
520 0 m  520 -294 l  520 -321 520 -351 518 -384 ct 578 -384 l  580 -340 581 -314 581 -305 ct 
583 -305 l  593 -338 605 -361 618 -373 ct 631 -385 650 -391 674 -391 ct 682 -391 691 -390 700 -387 ct 
700 -329 l  691 -331 680 -332 666 -332 ct 639 -332 619 -321 605 -298 ct 591 -275 584 -243 584 -200 ct 
584 0 l  520 0 l  p ef
804 -179 m  804 -135 813 -101 831 -77 ct 849 -53 876 -41 911 -41 ct 939 -41 961 -46 977 -58 ct 
994 -69 1005 -83 1011 -100 ct 1067 -84 l  1044 -23 992 7 911 7 ct 854 7 811 -10 781 -44 ct 
752 -78 737 -128 737 -194 ct 737 -258 752 -306 781 -340 ct 811 -374 853 -391 908 -391 ct 
1021 -391 1078 -323 1078 -188 ct 1078 -179 l  804 -179 l  p
1012 -228 m  1008 -268 998 -298 981 -316 ct 964 -335 939 -344 907 -344 ct 876 -344 852 -334 834 -313 ct 
816 -292 806 -264 805 -228 ct 1012 -228 l  p ef
1388 0 m  1388 -243 l  1388 -269 1386 -288 1381 -302 ct 1376 -316 1368 -326 1357 -332 ct 
1346 -339 1330 -342 1309 -342 ct 1279 -342 1254 -331 1237 -310 ct 1219 -289 1210 -260 1210 -222 ct 
1210 0 l  1146 0 l  1146 -302 l  1146 -347 1146 -374 1144 -384 ct 1204 -384 l 
1205 -383 1205 -380 1205 -374 ct 1205 -369 1206 -363 1206 -356 ct 1206 -350 1207 -337 1207 -318 ct 
1208 -318 l  1223 -345 1240 -364 1259 -375 ct 1279 -386 1302 -391 1331 -391 ct 
1373 -391 1404 -381 1423 -360 ct 1443 -339 1453 -304 1453 -256 ct 1453 0 l  1388 0 l 
p ef
1860 -192 m  1860 -125 1846 -75 1816 -42 ct 1786 -9 1744 7 1687 7 ct 1631 7 1589 -10 1560 -44 ct 
1532 -78 1517 -128 1517 -192 ct 1517 -325 1575 -391 1689 -391 ct 1748 -391 1791 -375 1819 -343 ct 
1846 -310 1860 -260 1860 -192 ct p
1793 -192 m  1793 -245 1785 -284 1770 -308 ct 1754 -332 1728 -344 1690 -344 ct 
1653 -344 1626 -332 1609 -307 ct 1593 -283 1584 -244 1584 -192 ct 1584 -142 1593 -104 1609 -78 ct 
1626 -53 1651 -40 1687 -40 ct 1725 -40 1752 -52 1769 -77 ct 1785 -102 1793 -140 1793 -192 ct 
p ef
2214 -106 m  2214 -70 2200 -42 2173 -22 ct 2146 -3 2107 7 2058 7 ct 2010 7 1974 -1 1948 -17 ct 
1922 -32 1905 -57 1897 -90 ct 1954 -101 l  1959 -81 1970 -66 1987 -56 ct 2004 -46 2028 -42 2058 -42 ct 
2091 -42 2114 -47 2129 -57 ct 2144 -66 2152 -81 2152 -101 ct 2152 -116 2147 -129 2136 -138 ct 
2126 -148 2109 -155 2086 -162 ct 2040 -174 l  2003 -183 1977 -192 1962 -201 ct 
1946 -211 1934 -222 1926 -235 ct 1917 -248 1912 -264 1912 -283 ct 1912 -318 1925 -344 1950 -363 ct 
1975 -381 2011 -390 2059 -390 ct 2101 -390 2135 -383 2160 -368 ct 2185 -353 2200 -329 2207 -296 ct 
2150 -289 l  2146 -306 2137 -319 2121 -328 ct 2106 -337 2085 -342 2059 -342 ct 
2030 -342 2009 -337 1995 -329 ct 1981 -320 1974 -307 1974 -289 ct 1974 -278 1977 -269 1983 -262 ct 
1989 -255 1997 -249 2008 -244 ct 2019 -239 2043 -232 2078 -223 ct 2112 -215 2136 -207 2151 -200 ct 
2166 -192 2178 -184 2187 -176 ct 2195 -167 2202 -157 2207 -145 ct 2211 -134 2214 -121 2214 -106 ct 
p ef
2642 -18 m  2642 4 2640 24 2636 42 ct 2632 59 2625 76 2614 93 ct 2571 93 l  2593 61 2605 30 2605 0 ct 
2573 0 l  2573 -69 l  2642 -69 l  2642 -18 l  p
2525 -18 m  2525 7 2523 28 2518 45 ct 2514 62 2507 78 2497 93 ct 2454 93 l  2476 61 2487 30 2487 0 ct 
2456 0 l  2456 -69 l  2525 -69 l  2525 -18 l  p ef
3186 -251 m  3186 -205 3174 -162 3151 -122 ct 3129 -82 3097 -51 3057 -28 ct 
3018 -5 2975 6 2929 6 ct 2883 6 2839 -6 2799 -30 ct 2759 -53 2728 -85 2706 -124 ct 
2684 -164 2673 -206 2673 -251 ct 2673 -296 2684 -339 2707 -379 ct 2730 -418 2762 -450 2801 -473 ct 
2841 -496 2884 -507 2929 -507 ct 2975 -507 3018 -495 3058 -472 ct 3098 -449 3129 -418 3152 -379 ct 
3174 -339 3186 -296 3186 -251 ct p
3153 -250 m  3153 -290 3143 -328 3123 -362 ct 3103 -396 3076 -423 3041 -443 ct 
3007 -463 2969 -473 2929 -473 ct 2890 -473 2852 -463 2818 -443 ct 2783 -423 2756 -396 2736 -362 ct 
2717 -327 2707 -290 2707 -250 ct 2707 -211 2717 -173 2737 -139 ct 2757 -104 2784 -77 2818 -57 ct 
2852 -37 2889 -27 2929 -27 ct 2969 -27 3007 -37 3041 -57 ct 3076 -77 3103 -104 3123 -139 ct 
3143 -173 3153 -211 3153 -250 ct p
2839 -252 m  2839 -215 2847 -186 2864 -166 ct 2880 -146 2904 -136 2933 -136 ct 
2971 -136 2998 -154 3016 -191 ct 3057 -179 l  3042 -150 3025 -130 3005 -117 ct 
2985 -105 2961 -99 2933 -99 ct 2889 -99 2854 -112 2830 -139 ct 2805 -166 2793 -203 2793 -252 ct 
2793 -300 2805 -337 2828 -363 ct 2852 -389 2886 -402 2931 -402 ct 2988 -402 3029 -377 3051 -328 ct 
3011 -316 l  3003 -332 2993 -345 2979 -353 ct 2965 -361 2949 -365 2931 -365 ct 
2901 -365 2878 -355 2862 -336 ct 2847 -317 2839 -289 2839 -252 ct p ef
3328 -338 m  3328 -390 l  3328 -412 3330 -432 3335 -450 ct 3339 -467 3346 -484 3356 -500 ct 
3399 -500 l  3377 -468 3366 -437 3366 -407 ct 3397 -407 l  3397 -338 l  3328 -338 l 
p
3211 -338 m  3211 -390 l  3211 -413 3213 -433 3217 -450 ct 3222 -468 3229 -484 3239 -500 ct 
3282 -500 l  3259 -468 3248 -437 3248 -407 ct 3280 -407 l  3280 -338 l  3211 -338 l 
p ef
pom
pum
9630 13944 t
446 -350 m  446 -302 431 -265 400 -237 ct 369 -209 327 -195 274 -195 ct 127 -195 l 
127 0 l  60 0 l  60 -500 l  270 -500 l  326 -500 369 -487 400 -461 ct 431 -434 446 -397 446 -350 ct 
p
378 -349 m  378 -413 339 -446 262 -446 ct 127 -446 l  127 -249 l  264 -249 l 
340 -249 378 -282 378 -349 ct p ef
843 -192 m  843 -125 829 -75 799 -42 ct 769 -9 727 7 670 7 ct 614 7 572 -10 543 -44 ct 
515 -78 500 -128 500 -192 ct 500 -325 558 -391 672 -391 ct 731 -391 774 -375 802 -343 ct 
829 -310 843 -260 843 -192 ct p
776 -192 m  776 -245 768 -284 753 -308 ct 737 -332 711 -344 673 -344 ct 636 -344 609 -332 592 -307 ct 
576 -283 567 -244 567 -192 ct 567 -142 576 -104 592 -78 ct 609 -53 634 -40 670 -40 ct 
708 -40 735 -52 752 -77 ct 768 -102 776 -140 776 -192 ct p ef
910 1 m  910 -526 l  974 -526 l  974 1 l  910 1 l  p ef
1065 -465 m  1065 -526 l  1128 -526 l  1128 -465 l  1065 -465 l  p
1128 48 m  1128 84 1121 110 1107 127 ct 1093 143 1072 151 1043 151 ct 1025 151 1010 150 998 148 ct 
998 98 l  1020 101 l  1037 101 1048 96 1055 88 ct 1061 79 1065 63 1065 38 ct 
1065 -383 l  1128 -383 l  1128 48 l  p ef
1282 -384 m  1282 -141 l  1282 -115 1285 -96 1290 -82 ct 1295 -68 1303 -58 1314 -52 ct 
1324 -45 1340 -42 1361 -42 ct 1392 -42 1416 -53 1434 -74 ct 1452 -95 1461 -124 1461 -162 ct 
1461 -384 l  1524 -384 l  1524 -82 l  1524 -37 1525 -10 1527 0 ct 1466 0 l 
1466 -1 1466 -4 1466 -10 ct 1465 -15 1465 -21 1465 -28 ct 1464 -34 1464 -47 1463 -66 ct 
1462 -66 l  1448 -39 1431 -21 1412 -10 ct 1392 1 1368 7 1340 7 ct 1298 7 1267 -3 1247 -24 ct 
1228 -45 1218 -80 1218 -128 ct 1218 -384 l  1282 -384 l  p ef
1934 -193 m  1934 -59 1887 8 1793 8 ct 1764 8 1740 3 1721 -8 ct 1701 -18 1686 -35 1674 -59 ct 
1673 -59 l  1673 -51 1673 -40 1672 -24 ct 1671 -9 1670 -1 1669 -1 ct 1608 -1 l 
1609 -14 1610 -40 1610 -80 ct 1610 -526 l  1674 -526 l  1674 -376 l  1674 -360 1673 -342 1672 -321 ct 
1674 -321 l  1686 -346 1701 -364 1721 -374 ct 1740 -385 1764 -390 1793 -390 ct 
1842 -390 1877 -374 1900 -341 ct 1923 -309 1934 -259 1934 -193 ct p
1867 -191 m  1867 -245 1860 -283 1846 -306 ct 1832 -329 1809 -341 1777 -341 ct 
1741 -341 1715 -329 1698 -304 ct 1682 -279 1674 -240 1674 -187 ct 1674 -136 1682 -99 1698 -75 ct 
1714 -51 1740 -39 1776 -39 ct 1808 -39 1832 -51 1846 -75 ct 1860 -99 1867 -137 1867 -191 ct 
p ef
2244 0 m  2244 -243 l  2244 -269 2242 -288 2237 -302 ct 2232 -316 2224 -326 2213 -332 ct 
2202 -339 2186 -342 2165 -342 ct 2135 -342 2110 -331 2093 -310 ct 2075 -289 2066 -260 2066 -222 ct 
2066 0 l  2002 0 l  2002 -302 l  2002 -347 2002 -374 2000 -384 ct 2060 -384 l 
2061 -383 2061 -380 2061 -374 ct 2061 -369 2062 -363 2062 -356 ct 2062 -350 2063 -337 2063 -318 ct 
2064 -318 l  2079 -345 2096 -364 2115 -375 ct 2135 -386 2158 -391 2187 -391 ct 
2229 -391 2260 -381 2279 -360 ct 2299 -339 2309 -304 2309 -256 ct 2309 0 l  2244 0 l 
p ef
2489 7 m  2450 7 2421 -3 2402 -24 ct 2383 -44 2373 -72 2373 -108 ct 2373 -148 2386 -179 2412 -200 ct 
2438 -221 2480 -232 2538 -232 ct 2625 -232 l  2625 -253 l  2625 -285 2618 -308 2605 -322 ct 
2591 -336 2571 -342 2542 -342 ct 2514 -342 2493 -338 2480 -328 ct 2467 -318 2459 -303 2457 -281 ct 
2390 -287 l  2401 -356 2452 -391 2544 -391 ct 2592 -391 2628 -380 2653 -358 ct 
2677 -336 2689 -304 2689 -262 ct 2689 -97 l  2689 -78 2692 -64 2696 -54 ct 2701 -45 2711 -40 2725 -40 ct 
2731 -40 2738 -41 2746 -42 ct 2746 -3 l  2730 1 2713 3 2697 3 ct 2673 3 2656 -3 2645 -15 ct 
2634 -28 2628 -47 2627 -73 ct 2625 -73 l  2608 -44 2589 -23 2568 -11 ct 2546 1 2520 7 2489 7 ct 
p
2503 -41 m  2527 -41 2547 -46 2566 -57 ct 2584 -67 2598 -82 2609 -100 ct 2619 -118 2625 -137 2625 -157 ct 
2625 -188 l  2555 -188 l  2525 -188 2502 -185 2486 -179 ct 2471 -174 2459 -165 2451 -153 ct 
2443 -141 2438 -126 2438 -106 ct 2438 -86 2444 -69 2455 -58 ct 2466 -47 2483 -41 2503 -41 ct 
p ef
pom
pum
9630 14757 t
49 1 m  49 -526 l  113 -526 l  113 1 l  49 1 l  p ef
205 -465 m  205 -526 l  268 -526 l  268 -465 l  205 -465 l  p
205 1 m  205 -383 l  268 -383 l  268 1 l  205 1 l  p ef
407 -194 m  407 -143 416 -105 432 -80 ct 448 -56 472 -43 504 -43 ct 527 -43 546 -49 561 -61 ct 
576 -73 586 -92 589 -116 ct 654 -116 l  649 -79 633 -49 607 -27 ct 580 -4 547 7 506 7 ct 
452 7 411 -10 383 -44 ct 355 -78 341 -127 341 -192 ct 341 -257 355 -306 383 -340 ct 
412 -374 452 -391 505 -391 ct 545 -391 577 -381 603 -361 ct 629 -340 645 -312 652 -276 ct 
586 -271 l  583 -293 574 -310 561 -322 ct 548 -335 528 -341 504 -341 ct 470 -341 445 -330 430 -307 ct 
415 -285 407 -247 407 -194 ct p ef
761 -179 m  761 -135 770 -101 788 -77 ct 806 -53 833 -41 868 -41 ct 896 -41 918 -46 934 -58 ct 
951 -69 962 -83 968 -100 ct 1024 -84 l  1001 -23 949 7 868 7 ct 811 7 768 -10 738 -44 ct 
709 -78 694 -128 694 -194 ct 694 -258 709 -306 738 -340 ct 768 -374 810 -391 865 -391 ct 
978 -391 1035 -323 1035 -188 ct 1035 -179 l  761 -179 l  p
969 -228 m  965 -268 955 -298 938 -316 ct 921 -335 896 -344 864 -344 ct 833 -344 809 -334 791 -313 ct 
773 -292 763 -264 762 -228 ct 969 -228 l  p ef
1345 0 m  1345 -243 l  1345 -269 1343 -288 1338 -302 ct 1333 -316 1325 -326 1314 -332 ct 
1303 -339 1287 -342 1266 -342 ct 1236 -342 1211 -331 1194 -310 ct 1176 -289 1167 -260 1167 -222 ct 
1167 0 l  1103 0 l  1103 -302 l  1103 -347 1103 -374 1101 -384 ct 1161 -384 l 
1162 -383 1162 -380 1162 -374 ct 1162 -369 1163 -363 1163 -356 ct 1163 -350 1164 -337 1164 -318 ct 
1165 -318 l  1180 -345 1197 -364 1216 -375 ct 1236 -386 1259 -391 1288 -391 ct 
1330 -391 1361 -381 1380 -360 ct 1400 -339 1410 -304 1410 -256 ct 1410 0 l  1345 0 l 
p ef
1541 -194 m  1541 -143 1550 -105 1566 -80 ct 1582 -56 1606 -43 1638 -43 ct 1661 -43 1680 -49 1695 -61 ct 
1710 -73 1720 -92 1723 -116 ct 1788 -116 l  1783 -79 1767 -49 1741 -27 ct 1714 -4 1681 7 1640 7 ct 
1586 7 1545 -10 1517 -44 ct 1489 -78 1475 -127 1475 -192 ct 1475 -257 1489 -306 1517 -340 ct 
1546 -374 1586 -391 1639 -391 ct 1679 -391 1711 -381 1737 -361 ct 1763 -340 1779 -312 1786 -276 ct 
1720 -271 l  1717 -293 1708 -310 1695 -322 ct 1682 -335 1662 -341 1638 -341 ct 
1604 -341 1579 -330 1564 -307 ct 1549 -285 1541 -247 1541 -194 ct p ef
1944 7 m  1905 7 1876 -3 1857 -24 ct 1838 -44 1828 -72 1828 -108 ct 1828 -148 1841 -179 1867 -200 ct 
1893 -221 1935 -232 1993 -232 ct 2080 -232 l  2080 -253 l  2080 -285 2073 -308 2060 -322 ct 
2046 -336 2026 -342 1997 -342 ct 1969 -342 1948 -338 1935 -328 ct 1922 -318 1914 -303 1912 -281 ct 
1845 -287 l  1856 -356 1907 -391 1999 -391 ct 2047 -391 2083 -380 2108 -358 ct 
2132 -336 2144 -304 2144 -262 ct 2144 -97 l  2144 -78 2147 -64 2151 -54 ct 2156 -45 2166 -40 2180 -40 ct 
2186 -40 2193 -41 2201 -42 ct 2201 -3 l  2185 1 2168 3 2152 3 ct 2128 3 2111 -3 2100 -15 ct 
2089 -28 2083 -47 2082 -73 ct 2080 -73 l  2063 -44 2044 -23 2023 -11 ct 2001 1 1975 7 1944 7 ct 
p
1958 -41 m  1982 -41 2002 -46 2021 -57 ct 2039 -67 2053 -82 2064 -100 ct 2074 -118 2080 -137 2080 -157 ct 
2080 -188 l  2010 -188 l  1980 -188 1957 -185 1941 -179 ct 1926 -174 1914 -165 1906 -153 ct 
1898 -141 1893 -126 1893 -106 ct 1893 -86 1899 -69 1910 -58 ct 1921 -47 1938 -41 1958 -41 ct 
p ef
pom
pum
2056 16573 t
446 -141 m  446 -96 430 -62 397 -37 ct 365 -12 320 0 262 0 ct 60 0 l  60 -500 l 
241 -500 l  358 -500 417 -459 417 -378 ct 417 -349 409 -324 392 -304 ct 376 -284 352 -270 322 -263 ct 
362 -259 392 -245 414 -223 ct 435 -202 446 -174 446 -141 ct p
349 -370 m  349 -397 340 -417 321 -428 ct 303 -440 276 -446 241 -446 ct 127 -446 l 
127 -287 l  241 -287 l  277 -287 304 -294 322 -307 ct 340 -321 349 -342 349 -370 ct 
p
378 -146 m  378 -205 336 -234 253 -234 ct 127 -234 l  127 -54 l  259 -54 l 
300 -54 330 -62 349 -77 ct 368 -93 378 -116 378 -146 ct p ef
568 -179 m  568 -135 577 -101 595 -77 ct 613 -53 640 -41 675 -41 ct 703 -41 725 -46 741 -58 ct 
758 -69 769 -83 775 -100 ct 831 -84 l  808 -23 756 7 675 7 ct 618 7 575 -10 545 -44 ct 
516 -78 501 -128 501 -194 ct 501 -258 516 -306 545 -340 ct 575 -374 617 -391 672 -391 ct 
785 -391 842 -323 842 -188 ct 842 -179 l  568 -179 l  p
776 -228 m  772 -268 762 -298 745 -316 ct 728 -335 703 -344 671 -344 ct 640 -344 616 -334 598 -313 ct 
580 -292 570 -264 569 -228 ct 776 -228 l  p ef
1153 0 m  1153 -243 l  1153 -269 1151 -288 1146 -302 ct 1141 -316 1133 -326 1122 -332 ct 
1111 -339 1095 -342 1074 -342 ct 1044 -342 1019 -331 1002 -310 ct 984 -289 975 -260 975 -222 ct 
975 0 l  911 0 l  911 -302 l  911 -347 911 -374 909 -384 ct 969 -384 l  970 -383 970 -380 970 -374 ct 
970 -369 971 -363 971 -356 ct 971 -350 972 -337 972 -318 ct 973 -318 l  988 -345 1005 -364 1024 -375 ct 
1044 -386 1067 -391 1096 -391 ct 1138 -391 1169 -381 1188 -360 ct 1208 -339 1218 -304 1218 -256 ct 
1218 0 l  1153 0 l  p ef
1349 -179 m  1349 -135 1358 -101 1376 -77 ct 1394 -53 1421 -41 1456 -41 ct 1484 -41 1506 -46 1522 -58 ct 
1539 -69 1550 -83 1556 -100 ct 1612 -84 l  1589 -23 1537 7 1456 7 ct 1399 7 1356 -10 1326 -44 ct 
1297 -78 1282 -128 1282 -194 ct 1282 -258 1297 -306 1326 -340 ct 1356 -374 1398 -391 1453 -391 ct 
1566 -391 1623 -323 1623 -188 ct 1623 -179 l  1349 -179 l  p
1557 -228 m  1553 -268 1543 -298 1526 -316 ct 1509 -335 1484 -344 1452 -344 ct 
1421 -344 1397 -334 1379 -313 ct 1361 -292 1351 -264 1350 -228 ct 1557 -228 l 
p ef
1769 -338 m  1769 0 l  1705 0 l  1705 -338 l  1651 -338 l  1651 -384 l 
1705 -384 l  1705 -427 l  1705 -462 1713 -488 1728 -503 ct 1744 -518 1767 -526 1799 -526 ct 
1816 -526 1831 -525 1844 -522 ct 1844 -473 l  1833 -475 1824 -476 1815 -476 ct 
1799 -476 1787 -472 1780 -464 ct 1773 -455 1769 -440 1769 -418 ct 1769 -384 l 
1844 -384 l  1844 -338 l  1769 -338 l  p ef
1888 -465 m  1888 -526 l  1951 -526 l  1951 -465 l  1888 -465 l  p
1888 1 m  1888 -383 l  1951 -383 l  1951 1 l  1888 1 l  p ef
2091 -194 m  2091 -143 2100 -105 2116 -80 ct 2132 -56 2156 -43 2188 -43 ct 2211 -43 2230 -49 2245 -61 ct 
2260 -73 2270 -92 2273 -116 ct 2338 -116 l  2333 -79 2317 -49 2291 -27 ct 2264 -4 2231 7 2190 7 ct 
2136 7 2095 -10 2067 -44 ct 2039 -78 2025 -127 2025 -192 ct 2025 -257 2039 -306 2067 -340 ct 
2096 -374 2136 -391 2189 -391 ct 2229 -391 2261 -381 2287 -361 ct 2313 -340 2329 -312 2336 -276 ct 
2270 -271 l  2267 -293 2258 -310 2245 -322 ct 2232 -335 2212 -341 2188 -341 ct 
2154 -341 2129 -330 2114 -307 ct 2099 -285 2091 -247 2091 -194 ct p ef
2396 -465 m  2396 -526 l  2459 -526 l  2459 -465 l  2396 -465 l  p
2396 1 m  2396 -383 l  2459 -383 l  2459 1 l  2396 1 l  p ef
2649 7 m  2610 7 2581 -3 2562 -24 ct 2543 -44 2533 -72 2533 -108 ct 2533 -148 2546 -179 2572 -200 ct 
2598 -221 2640 -232 2698 -232 ct 2785 -232 l  2785 -253 l  2785 -285 2778 -308 2765 -322 ct 
2751 -336 2731 -342 2702 -342 ct 2674 -342 2653 -338 2640 -328 ct 2627 -318 2619 -303 2617 -281 ct 
2550 -287 l  2561 -356 2612 -391 2704 -391 ct 2752 -391 2788 -380 2813 -358 ct 
2837 -336 2849 -304 2849 -262 ct 2849 -97 l  2849 -78 2852 -64 2856 -54 ct 2861 -45 2871 -40 2885 -40 ct 
2891 -40 2898 -41 2906 -42 ct 2906 -3 l  2890 1 2873 3 2857 3 ct 2833 3 2816 -3 2805 -15 ct 
2794 -28 2788 -47 2787 -73 ct 2785 -73 l  2768 -44 2749 -23 2728 -11 ct 2706 1 2680 7 2649 7 ct 
p
2663 -41 m  2687 -41 2707 -46 2726 -57 ct 2744 -67 2758 -82 2769 -100 ct 2779 -118 2785 -137 2785 -157 ct 
2785 -188 l  2715 -188 l  2685 -188 2662 -185 2646 -179 ct 2631 -174 2619 -165 2611 -153 ct 
2603 -141 2598 -126 2598 -106 ct 2598 -86 2604 -69 2615 -58 ct 2626 -47 2643 -41 2663 -41 ct 
p ef
2943 0 m  2943 -294 l  2943 -321 2943 -351 2941 -384 ct 3001 -384 l  3003 -340 3004 -314 3004 -305 ct 
3006 -305 l  3016 -338 3028 -361 3041 -373 ct 3054 -385 3073 -391 3097 -391 ct 
3105 -391 3114 -390 3123 -387 ct 3123 -329 l  3114 -331 3103 -332 3089 -332 ct 
3062 -332 3042 -321 3028 -298 ct 3014 -275 3007 -243 3007 -200 ct 3007 0 l  2943 0 l 
p ef
pom
pum
16742 16573 t
255 -445 m  255 -1 l  188 -1 l  188 -445 l  16 -445 l  16 -500 l  427 -500 l 
427 -445 l  255 -445 l  p ef
454 0 m  454 -294 l  454 -321 454 -351 452 -384 ct 512 -384 l  514 -340 515 -314 515 -305 ct 
517 -305 l  527 -338 539 -361 552 -373 ct 565 -385 584 -391 608 -391 ct 616 -391 625 -390 634 -387 ct 
634 -329 l  625 -331 614 -332 600 -332 ct 573 -332 553 -321 539 -298 ct 525 -275 518 -243 518 -200 ct 
518 0 l  454 0 l  p ef
738 -179 m  738 -135 747 -101 765 -77 ct 783 -53 810 -41 845 -41 ct 873 -41 895 -46 911 -58 ct 
928 -69 939 -83 945 -100 ct 1001 -84 l  978 -23 926 7 845 7 ct 788 7 745 -10 715 -44 ct 
686 -78 671 -128 671 -194 ct 671 -258 686 -306 715 -340 ct 745 -374 787 -391 842 -391 ct 
955 -391 1012 -323 1012 -188 ct 1012 -179 l  738 -179 l  p
946 -228 m  942 -268 932 -298 915 -316 ct 898 -335 873 -344 841 -344 ct 810 -344 786 -334 768 -313 ct 
750 -292 740 -264 739 -228 ct 946 -228 l  p ef
1226 -3 m  1205 3 1184 6 1162 6 ct 1111 6 1085 -23 1085 -81 ct 1085 -337 l  1041 -337 l 
1041 -383 l  1088 -383 l  1107 -470 l  1149 -470 l  1149 -383 l  1220 -383 l 
1220 -337 l  1149 -337 l  1149 -95 l  1149 -76 1152 -63 1158 -56 ct 1164 -48 1175 -45 1190 -45 ct 
1198 -45 1210 -46 1226 -50 ct 1226 -3 l  p ef
1277 -465 m  1277 -526 l  1340 -526 l  1340 -465 l  1277 -465 l  p
1340 48 m  1340 84 1333 110 1319 127 ct 1305 143 1284 151 1255 151 ct 1237 151 1222 150 1210 148 ct 
1210 98 l  1232 101 l  1249 101 1260 96 1267 88 ct 1273 79 1277 63 1277 38 ct 
1277 -383 l  1340 -383 l  1340 48 l  p ef
1481 -179 m  1481 -135 1490 -101 1508 -77 ct 1526 -53 1553 -41 1588 -41 ct 1616 -41 1638 -46 1654 -58 ct 
1671 -69 1682 -83 1688 -100 ct 1744 -84 l  1721 -23 1669 7 1588 7 ct 1531 7 1488 -10 1458 -44 ct 
1429 -78 1414 -128 1414 -194 ct 1414 -258 1429 -306 1458 -340 ct 1488 -374 1530 -391 1585 -391 ct 
1698 -391 1755 -323 1755 -188 ct 1755 -179 l  1481 -179 l  p
1689 -228 m  1685 -268 1675 -298 1658 -316 ct 1641 -335 1616 -344 1584 -344 ct 
1553 -344 1529 -334 1511 -313 ct 1493 -292 1483 -264 1482 -228 ct 1689 -228 l 
p ef
2344 -192 m  2344 -125 2330 -75 2300 -42 ct 2270 -9 2228 7 2171 7 ct 2115 7 2073 -10 2044 -44 ct 
2016 -78 2001 -128 2001 -192 ct 2001 -325 2059 -391 2173 -391 ct 2232 -391 2275 -375 2303 -343 ct 
2330 -310 2344 -260 2344 -192 ct p
2277 -192 m  2277 -245 2269 -284 2254 -308 ct 2238 -332 2212 -344 2174 -344 ct 
2137 -344 2110 -332 2093 -307 ct 2077 -283 2068 -244 2068 -192 ct 2068 -142 2077 -104 2093 -78 ct 
2110 -53 2135 -40 2171 -40 ct 2209 -40 2236 -52 2253 -77 ct 2269 -102 2277 -140 2277 -192 ct 
p ef
2698 -106 m  2698 -70 2684 -42 2657 -22 ct 2630 -3 2591 7 2542 7 ct 2494 7 2458 -1 2432 -17 ct 
2406 -32 2389 -57 2381 -90 ct 2438 -101 l  2443 -81 2454 -66 2471 -56 ct 2488 -46 2512 -42 2542 -42 ct 
2575 -42 2598 -47 2613 -57 ct 2628 -66 2636 -81 2636 -101 ct 2636 -116 2631 -129 2620 -138 ct 
2610 -148 2593 -155 2570 -162 ct 2524 -174 l  2487 -183 2461 -192 2446 -201 ct 
2430 -211 2418 -222 2410 -235 ct 2401 -248 2396 -264 2396 -283 ct 2396 -318 2409 -344 2434 -363 ct 
2459 -381 2495 -390 2543 -390 ct 2585 -390 2619 -383 2644 -368 ct 2669 -353 2684 -329 2691 -296 ct 
2634 -289 l  2630 -306 2621 -319 2605 -328 ct 2590 -337 2569 -342 2543 -342 ct 
2514 -342 2493 -337 2479 -329 ct 2465 -320 2458 -307 2458 -289 ct 2458 -278 2461 -269 2467 -262 ct 
2473 -255 2481 -249 2492 -244 ct 2503 -239 2527 -232 2562 -223 ct 2596 -215 2620 -207 2635 -200 ct 
2650 -192 2662 -184 2671 -176 ct 2679 -167 2686 -157 2691 -145 ct 2695 -134 2698 -121 2698 -106 ct 
p ef
2812 -179 m  2812 -135 2821 -101 2839 -77 ct 2857 -53 2884 -41 2919 -41 ct 2947 -41 2969 -46 2985 -58 ct 
3002 -69 3013 -83 3019 -100 ct 3075 -84 l  3052 -23 3000 7 2919 7 ct 2862 7 2819 -10 2789 -44 ct 
2760 -78 2745 -128 2745 -194 ct 2745 -258 2760 -306 2789 -340 ct 2819 -374 2861 -391 2916 -391 ct 
3029 -391 3086 -323 3086 -188 ct 3086 -179 l  2812 -179 l  p
3020 -228 m  3016 -268 3006 -298 2989 -316 ct 2972 -335 2947 -344 2915 -344 ct 
2884 -344 2860 -334 2842 -313 ct 2824 -292 2814 -264 2813 -228 ct 3020 -228 l 
p ef
3477 -193 m  3477 -59 3430 8 3336 8 ct 3307 8 3283 3 3264 -8 ct 3244 -18 3229 -35 3217 -59 ct 
3216 -59 l  3216 -51 3216 -40 3215 -24 ct 3214 -9 3213 -1 3212 -1 ct 3151 -1 l 
3152 -14 3153 -40 3153 -80 ct 3153 -526 l  3217 -526 l  3217 -376 l  3217 -360 3216 -342 3215 -321 ct 
3217 -321 l  3229 -346 3244 -364 3264 -374 ct 3283 -385 3307 -390 3336 -390 ct 
3385 -390 3420 -374 3443 -341 ct 3466 -309 3477 -259 3477 -193 ct p
3410 -191 m  3410 -245 3403 -283 3389 -306 ct 3375 -329 3352 -341 3320 -341 ct 
3284 -341 3258 -329 3241 -304 ct 3225 -279 3217 -240 3217 -187 ct 3217 -136 3225 -99 3241 -75 ct 
3257 -51 3283 -39 3319 -39 ct 3351 -39 3375 -51 3389 -75 ct 3403 -99 3410 -137 3410 -191 ct 
p ef
3592 -179 m  3592 -135 3601 -101 3619 -77 ct 3637 -53 3664 -41 3699 -41 ct 3727 -41 3749 -46 3765 -58 ct 
3782 -69 3793 -83 3799 -100 ct 3855 -84 l  3832 -23 3780 7 3699 7 ct 3642 7 3599 -10 3569 -44 ct 
3540 -78 3525 -128 3525 -194 ct 3525 -258 3540 -306 3569 -340 ct 3599 -374 3641 -391 3696 -391 ct 
3809 -391 3866 -323 3866 -188 ct 3866 -179 l  3592 -179 l  p
3800 -228 m  3796 -268 3786 -298 3769 -316 ct 3752 -335 3727 -344 3695 -344 ct 
3664 -344 3640 -334 3622 -313 ct 3604 -292 3594 -264 3593 -228 ct 3800 -228 l 
p ef
pom
pum
5132 11208 t
49.9 r 446 -350 m  446 -302 431 -265 400 -237 ct 369 -209 327 -195 274 -195 ct 
127 -195 l  127 0 l  60 0 l  60 -500 l  270 -500 l  326 -500 369 -487 400 -461 ct 
431 -434 446 -397 446 -350 ct p
378 -349 m  378 -413 339 -446 262 -446 ct 127 -446 l  127 -249 l  264 -249 l 
340 -249 378 -282 378 -349 ct p ef
520 0 m  520 -294 l  520 -321 520 -351 518 -384 ct 578 -384 l  580 -340 581 -314 581 -305 ct 
583 -305 l  593 -338 605 -361 618 -373 ct 631 -385 650 -391 674 -391 ct 682 -391 691 -390 700 -387 ct 
700 -329 l  691 -331 680 -332 666 -332 ct 639 -332 619 -321 605 -298 ct 591 -275 584 -243 584 -200 ct 
584 0 l  520 0 l  p ef
804 -179 m  804 -135 813 -101 831 -77 ct 849 -53 876 -41 911 -41 ct 939 -41 961 -46 977 -58 ct 
994 -69 1005 -83 1011 -100 ct 1067 -84 l  1044 -23 992 7 911 7 ct 854 7 811 -10 781 -44 ct 
752 -78 737 -128 737 -194 ct 737 -258 752 -306 781 -340 ct 811 -374 853 -391 908 -391 ct 
1021 -391 1078 -323 1078 -188 ct 1078 -179 l  804 -179 l  p
1012 -228 m  1008 -268 998 -298 981 -316 ct 964 -335 939 -344 907 -344 ct 876 -344 852 -334 834 -313 ct 
816 -292 806 -264 805 -228 ct 1012 -228 l  p ef
1388 0 m  1388 -243 l  1388 -269 1386 -288 1381 -302 ct 1376 -316 1368 -326 1357 -332 ct 
1346 -339 1330 -342 1309 -342 ct 1279 -342 1254 -331 1237 -310 ct 1219 -289 1210 -260 1210 -222 ct 
1210 0 l  1146 0 l  1146 -302 l  1146 -347 1146 -374 1144 -384 ct 1204 -384 l 
1205 -383 1205 -380 1205 -374 ct 1205 -369 1206 -363 1206 -356 ct 1206 -350 1207 -337 1207 -318 ct 
1208 -318 l  1223 -345 1240 -364 1259 -375 ct 1279 -386 1302 -391 1331 -391 ct 
1373 -391 1404 -381 1423 -360 ct 1443 -339 1453 -304 1453 -256 ct 1453 0 l  1388 0 l 
p ef
1860 -192 m  1860 -125 1846 -75 1816 -42 ct 1786 -9 1744 7 1687 7 ct 1631 7 1589 -10 1560 -44 ct 
1532 -78 1517 -128 1517 -192 ct 1517 -325 1575 -391 1689 -391 ct 1748 -391 1791 -375 1819 -343 ct 
1846 -310 1860 -260 1860 -192 ct p
1793 -192 m  1793 -245 1785 -284 1770 -308 ct 1754 -332 1728 -344 1690 -344 ct 
1653 -344 1626 -332 1609 -307 ct 1593 -283 1584 -244 1584 -192 ct 1584 -142 1593 -104 1609 -78 ct 
1626 -53 1651 -40 1687 -40 ct 1725 -40 1752 -52 1769 -77 ct 1785 -102 1793 -140 1793 -192 ct 
p ef
2214 -106 m  2214 -70 2200 -42 2173 -22 ct 2146 -3 2107 7 2058 7 ct 2010 7 1974 -1 1948 -17 ct 
1922 -32 1905 -57 1897 -90 ct 1954 -101 l  1959 -81 1970 -66 1987 -56 ct 2004 -46 2028 -42 2058 -42 ct 
2091 -42 2114 -47 2129 -57 ct 2144 -66 2152 -81 2152 -101 ct 2152 -116 2147 -129 2136 -138 ct 
2126 -148 2109 -155 2086 -162 ct 2040 -174 l  2003 -183 1977 -192 1962 -201 ct 
1946 -211 1934 -222 1926 -235 ct 1917 -248 1912 -264 1912 -283 ct 1912 -318 1925 -344 1950 -363 ct 
1975 -381 2011 -390 2059 -390 ct 2101 -390 2135 -383 2160 -368 ct 2185 -353 2200 -329 2207 -296 ct 
2150 -289 l  2146 -306 2137 -319 2121 -328 ct 2106 -337 2085 -342 2059 -342 ct 
2030 -342 2009 -337 1995 -329 ct 1981 -320 1974 -307 1974 -289 ct 1974 -278 1977 -269 1983 -262 ct 
1989 -255 1997 -249 2008 -244 ct 2019 -239 2043 -232 2078 -223 ct 2112 -215 2136 -207 2151 -200 ct 
2166 -192 2178 -184 2187 -176 ct 2195 -167 2202 -157 2207 -145 ct 2211 -134 2214 -121 2214 -106 ct 
p ef
2642 -18 m  2642 4 2640 24 2636 42 ct 2632 59 2625 76 2614 93 ct 2571 93 l  2593 61 2605 30 2605 0 ct 
2573 0 l  2573 -69 l  2642 -69 l  2642 -18 l  p
2525 -18 m  2525 7 2523 28 2518 45 ct 2514 62 2507 78 2497 93 ct 2454 93 l  2476 61 2487 30 2487 0 ct 
2456 0 l  2456 -69 l  2525 -69 l  2525 -18 l  p ef
3186 -251 m  3186 -205 3174 -162 3151 -122 ct 3129 -82 3097 -51 3057 -28 ct 
3018 -5 2975 6 2929 6 ct 2883 6 2839 -6 2799 -30 ct 2759 -53 2728 -85 2706 -124 ct 
2684 -164 2673 -206 2673 -251 ct 2673 -296 2684 -339 2707 -379 ct 2730 -418 2762 -450 2801 -473 ct 
2841 -496 2884 -507 2929 -507 ct 2975 -507 3018 -495 3058 -472 ct 3098 -449 3129 -418 3152 -379 ct 
3174 -339 3186 -296 3186 -251 ct p
3153 -250 m  3153 -290 3143 -328 3123 -362 ct 3103 -396 3076 -423 3041 -443 ct 
3007 -463 2969 -473 2929 -473 ct 2890 -473 2852 -463 2818 -443 ct 2783 -423 2756 -396 2736 -362 ct 
2717 -327 2707 -290 2707 -250 ct 2707 -211 2717 -173 2737 -139 ct 2757 -104 2784 -77 2818 -57 ct 
2852 -37 2889 -27 2929 -27 ct 2969 -27 3007 -37 3041 -57 ct 3076 -77 3103 -104 3123 -139 ct 
3143 -173 3153 -211 3153 -250 ct p
2839 -252 m  2839 -215 2847 -186 2864 -166 ct 2880 -146 2904 -136 2933 -136 ct 
2971 -136 2998 -154 3016 -191 ct 3057 -179 l  3042 -150 3025 -130 3005 -117 ct 
2985 -105 2961 -99 2933 -99 ct 2889 -99 2854 -112 2830 -139 ct 2805 -166 2793 -203 2793 -252 ct 
2793 -300 2805 -337 2828 -363 ct 2852 -389 2886 -402 2931 -402 ct 2988 -402 3029 -377 3051 -328 ct 
3011 -316 l  3003 -332 2993 -345 2979 -353 ct 2965 -361 2949 -365 2931 -365 ct 
2901 -365 2878 -355 2862 -336 ct 2847 -317 2839 -289 2839 -252 ct p ef
3328 -338 m  3328 -390 l  3328 -412 3330 -432 3335 -450 ct 3339 -467 3346 -484 3356 -500 ct 
3399 -500 l  3377 -468 3366 -437 3366 -407 ct 3397 -407 l  3397 -338 l  3328 -338 l 
p
3211 -338 m  3211 -390 l  3211 -413 3213 -433 3217 -450 ct 3222 -468 3229 -484 3239 -500 ct 
3282 -500 l  3259 -468 3248 -437 3248 -407 ct 3280 -407 l  3280 -338 l  3211 -338 l 
p ef
pom
pum
5737 11730 t
49.9 r 292 0 m  292 -243 l  292 -269 290 -288 285 -302 ct 280 -316 272 -326 261 -332 ct 
250 -339 234 -342 213 -342 ct 183 -342 158 -331 141 -310 ct 123 -289 114 -260 114 -222 ct 
114 0 l  50 0 l  50 -302 l  50 -347 50 -374 48 -384 ct 108 -384 l  109 -383 109 -380 109 -374 ct 
109 -369 110 -363 110 -356 ct 110 -350 111 -337 111 -318 ct 112 -318 l  127 -345 144 -364 163 -375 ct 
183 -386 206 -391 235 -391 ct 277 -391 308 -381 327 -360 ct 347 -339 357 -304 357 -256 ct 
357 0 l  292 0 l  p ef
537 7 m  498 7 469 -3 450 -24 ct 431 -44 421 -72 421 -108 ct 421 -148 434 -179 460 -200 ct 
486 -221 528 -232 586 -232 ct 673 -232 l  673 -253 l  673 -285 666 -308 653 -322 ct 
639 -336 619 -342 590 -342 ct 562 -342 541 -338 528 -328 ct 515 -318 507 -303 505 -281 ct 
438 -287 l  449 -356 500 -391 592 -391 ct 640 -391 676 -380 701 -358 ct 725 -336 737 -304 737 -262 ct 
737 -97 l  737 -78 740 -64 744 -54 ct 749 -45 759 -40 773 -40 ct 779 -40 786 -41 794 -42 ct 
794 -3 l  778 1 761 3 745 3 ct 721 3 704 -3 693 -15 ct 682 -28 676 -47 675 -73 ct 
673 -73 l  656 -44 637 -23 616 -11 ct 594 1 568 7 537 7 ct p
551 -41 m  575 -41 595 -46 614 -57 ct 632 -67 646 -82 657 -100 ct 667 -118 673 -137 673 -157 ct 
673 -188 l  603 -188 l  573 -188 550 -185 534 -179 ct 519 -174 507 -165 499 -153 ct 
491 -141 486 -126 486 -106 ct 486 -86 492 -69 503 -58 ct 514 -47 531 -41 551 -41 ct 
p ef
810 0 m  810 -49 l  1025 -335 l  822 -335 l  822 -384 l  1100 -384 l  1100 -335 l 
886 -49 l  1108 -49 l  1108 0 l  810 0 l  p ef
1280 7 m  1241 7 1212 -3 1193 -24 ct 1174 -44 1164 -72 1164 -108 ct 1164 -148 1177 -179 1203 -200 ct 
1229 -221 1271 -232 1329 -232 ct 1416 -232 l  1416 -253 l  1416 -285 1409 -308 1396 -322 ct 
1382 -336 1362 -342 1333 -342 ct 1305 -342 1284 -338 1271 -328 ct 1258 -318 1250 -303 1248 -281 ct 
1181 -287 l  1192 -356 1243 -391 1335 -391 ct 1383 -391 1419 -380 1444 -358 ct 
1468 -336 1480 -304 1480 -262 ct 1480 -97 l  1480 -78 1483 -64 1487 -54 ct 1492 -45 1502 -40 1516 -40 ct 
1522 -40 1529 -41 1537 -42 ct 1537 -3 l  1521 1 1504 3 1488 3 ct 1464 3 1447 -3 1436 -15 ct 
1425 -28 1419 -47 1418 -73 ct 1416 -73 l  1399 -44 1380 -23 1359 -11 ct 1337 1 1311 7 1280 7 ct 
p
1294 -41 m  1318 -41 1338 -46 1357 -57 ct 1375 -67 1389 -82 1400 -100 ct 1410 -118 1416 -137 1416 -157 ct 
1416 -188 l  1346 -188 l  1316 -188 1293 -185 1277 -179 ct 1262 -174 1250 -165 1242 -153 ct 
1234 -141 1229 -126 1229 -106 ct 1229 -86 1235 -69 1246 -58 ct 1257 -47 1274 -41 1294 -41 ct 
p ef
1573 -465 m  1573 -526 l  1636 -526 l  1636 -465 l  1573 -465 l  p
1636 48 m  1636 84 1629 110 1615 127 ct 1601 143 1580 151 1551 151 ct 1533 151 1518 150 1506 148 ct 
1506 98 l  1528 101 l  1545 101 1556 96 1563 88 ct 1569 79 1573 63 1573 38 ct 
1573 -383 l  1636 -383 l  1636 48 l  p ef
pom
gr
gs
1111 1143 m 21110 1143 l 21110 17142 l 1111 17142 l 1111 1143 l eoclip newpath
gr
gr
0 16000 t 
pom
count op_count sub {pop} repeat countdictstack dict_count sub {end} repeat b4_inc_state restore
%%PageTrailer
%%Trailer
%%EOF
